\relax 
\@writefile{toc}{\contentsline {section}{\numberline {1}Motivation}{1}{}\protected@file@percent }
\@writefile{toc}{\contentsline {section}{\numberline {2}Method}{2}{}\protected@file@percent }
\@writefile{toc}{\contentsline {section}{\numberline {3}Intended experiments}{2}{}\protected@file@percent }
\@writefile{toc}{\contentsline {section}{\numberline {4}Literature Review}{2}{}\protected@file@percent }
\@writefile{toc}{\contentsline {section}{\numberline {5}Bibliography}{3}{}\protected@file@percent }
\gdef \@abspage@last{3}
